{
    "name": "kubernetes-cluster-demo-devcontainer",
    "build": {
        "args": {
            "ALPINE_VERSION": "3.11"
        },
        "dockerfile": "Dockerfile"
    },
    "containerEnv": {
        "ASPNETCORE_ENVIRONMENT": "Development"
    },
    "devPort": 8080,
    "extensions": [
        "ms-dotnettools.csharp",
        "fudge.auto-using",
        "coenraads.bracket-pair-colorizer",
        "oderwat.indent-rainbow",
        "dbaeumer.vscode-eslint",
        "streetsidesoftware.code-spell-checker",
        "eamodio.gitlens",
        "humao.rest-client",
        "visualstudioexptteam.vscodeintellicode",
        "mutantdino.resourcemonitor"
    ],
    "forwardPorts": [
        4369,
        5671,
        5672,
        6379
    ],
    "postCreateCommand": "rabbitmq-server -detached; redis-server --daemonize yes; cd src/NodePublisher && npm install && npm start &",
    "settings": {
        "terminal.integrated.shell.linux": "/bin/bash"
    }
}